[2023-08-25 10:34:16]::INFO    Loaded popmap ("F": 74, "M": 101)
[2023-08-25 10:34:16]::INFO    RADSex <distrib> started
[2023-08-25 10:34:16]::INFO    Comparing groups "M" and "F"
[2023-08-25 10:34:17]::INFO    RADSex <distrib> ended (total runtime: 0h 0m 0s)
